<svg viewBox="-220 -220 440 440" width="400" height="400" xmlns="http://www.w3.org/2000/svg" >
<g id="theCovid">
<animateTransform attributeName="transform"
                    attributeType="XML"
                    type="rotate"
                    from="0 0 0"
                    to="360 0 0"
                    dur="60s"
                    repeatCount="indefinite"/>

    <g id="thing2" stroke="#18dd36" stroke-width="10" stroke-linejoin="round" stroke-linecap="round">
    <g fill="none">
        <g id="thing1" >
        <path d="M 94,24 A 30 30 0 0 1 130,20 A 30 30 0 0 0 160,20    A 25 25 0 0 1 160,-20     A 30 30 0 0 0 130,-20 A 30 30 0 0 1 94,-24"></path>
        <ellipse cx="180" cy="0" rx="20" ry="25" stroke="red"></ellipse>
        </g>
        <use href="#thing1" transform="rotate(30)"></use>
        <use href="#thing1" transform="rotate(60)"></use>
        <use href="#thing1" transform="rotate(90)"></use>
        <circle cx="0" cy="0" r="20" stroke="red" fill="rgba(24,230,54,0.2)"></circle>
        <circle id="innard" cx="60" cy="0" r="20" stroke="red" fill="rgba(24,230,54,0.3)"></circle>
    </g>
        <use href="#innard" transform="rotate(60)"></use>
    </g>

    <use href="#thing2" transform="rotate(120)"></use>
    <use href="#thing2" transform="rotate(240)"></use>
</g>
</svg>