<svg viewBox="-220 -220 440 440" width="400" height="400" xmlns="http://www.w3.org/2000/svg" >

<g id="thing2" stroke="#18dd36" stroke-width="10" stroke-linejoin="round" stroke-linecap="round">
  <g fill="none">
    <path id="thing1" d="M 94,24 A 30 30 0 0 1 130,20 A 30 30 0 0 0 160,20    A 25 25 0 0 1 160,-20     A 30 30 0 0 0 130,-20 A 30 30 0 0 1 94,-24"></path>
    <use href="#thing1" transform="rotate(30)"></use>
    <use href="#thing1" transform="rotate(60)"></use>
    <use href="#thing1" transform="rotate(90)"></use>
    <circle id="innard" cx="60" cy="0" r="20" stroke="purple"></circle>
    <use href="#innard" transform="rotate(60)"></use>
  </g>
</g>

<use href="#thing2" transform="rotate(120)"></use>
<use href="#thing2" transform="rotate(240)"></use>

</svg>